Route1: 81 78 104 76 71 70 73 77 79 80 
Route2: 57 55 54 53 56 58 60 59 
Route3: 32 33 31 35 37 38 39 36 105 34 
Route4: 98 96 95 94 92 93 97 106 100 99 
Route5: 43 42 41 40 44 46 45 48 51 101 50 52 49 47 
Route6: 90 87 86 83 82 84 85 88 89 91 
Route7: 13 17 18 19 15 16 14 12 
Route8: 5 3 7 8 10 11 9 6 4 2 1 75 
Route9: 67 65 63 62 74 72 61 64 102 68 66 69 
Route10: 20 24 25 27 29 30 28 26 23 103 22 21 
